# Blender v2.82 (sub 7) OBJ File: ''
# www.blender.org
mtllib Cont(27)-fixed.mtl
o SM_CRATE_01_LOW_POLY_Меш
v 0.332868 1.098152 0.164175
v 0.332868 1.098152 0.196990
v 0.297812 1.077213 0.197625
v 0.297812 1.077213 0.163540
v 0.332868 1.156274 0.164175
v 0.297812 1.177213 0.163540
v 0.297812 1.177213 0.197625
v 0.332868 1.156274 0.196990
v 0.332868 1.110669 0.168442
v 0.332868 1.110669 0.192724
v 0.332868 1.143757 0.168442
v 0.332868 1.143757 0.192724
v 0.363274 1.110669 0.168442
v 0.363274 1.110669 0.192724
v 0.363274 1.143757 0.168442
v 0.363274 1.143757 0.192724
v 0.370000 1.106090 0.168442
v 0.370000 1.106090 0.192724
v 0.380871 1.137342 0.168442
v 0.380871 1.137342 0.192724
v 0.374169 1.094236 0.168442
v 0.374169 1.094236 0.192724
v 0.395803 1.119273 0.168442
v 0.395803 1.119273 0.192724
v 0.374294 1.088686 0.168442
v 0.374294 1.088686 0.192724
v 0.399378 1.088737 0.168442
v 0.399378 1.088737 0.192724
v 0.332868 0.220236 0.212151
v 0.332868 0.220236 0.179336
v 0.297812 0.241175 0.178701
v 0.297812 0.241175 0.212786
v 0.332868 0.162114 0.212151
v 0.297812 0.141175 0.212786
v 0.297812 0.141175 0.178701
v 0.332868 0.162114 0.179336
v 0.332868 0.207719 0.207885
v 0.332868 0.207719 0.183602
v 0.332868 0.174631 0.207885
v 0.332868 0.174631 0.183602
v 0.363274 0.207719 0.207885
v 0.363274 0.207719 0.183602
v 0.363274 0.174631 0.207885
v 0.363274 0.174631 0.183602
v 0.370000 0.212298 0.207885
v 0.370000 0.212298 0.183602
v 0.380871 0.181046 0.207885
v 0.380871 0.181046 0.183602
v 0.374169 0.224151 0.207885
v 0.374169 0.224151 0.183602
v 0.395803 0.199115 0.207885
v 0.395803 0.199115 0.183602
v 0.374294 0.229702 0.207885
v 0.374294 0.229702 0.183602
v 0.399378 0.229651 0.207885
v 0.399378 0.229651 0.183602
v 0.332868 1.098152 -0.205139
v 0.332868 1.098152 -0.172324
v 0.297812 1.077213 -0.171689
v 0.297812 1.077213 -0.205774
v 0.332868 1.156274 -0.205139
v 0.297812 1.177213 -0.205774
v 0.297812 1.177213 -0.171689
v 0.332868 1.156274 -0.172324
v 0.332868 1.110669 -0.200873
v 0.332868 1.110669 -0.176591
v 0.332868 1.143757 -0.200873
v 0.332868 1.143757 -0.176591
v 0.363274 1.110669 -0.200873
v 0.363274 1.110669 -0.176591
v 0.363274 1.143757 -0.200873
v 0.363274 1.143757 -0.176591
v 0.370000 1.106090 -0.200873
v 0.370000 1.106090 -0.176591
v 0.380871 1.137342 -0.200873
v 0.380871 1.137342 -0.176591
v 0.374169 1.094236 -0.200873
v 0.374169 1.094236 -0.176591
v 0.395803 1.119273 -0.200873
v 0.395803 1.119273 -0.176591
v 0.374294 1.088686 -0.200873
v 0.374294 1.088686 -0.176591
v 0.399378 1.088736 -0.200873
v 0.399378 1.088736 -0.176591
v 0.332868 0.220236 -0.157163
v 0.332868 0.220236 -0.189979
v 0.297812 0.241175 -0.190614
v 0.297812 0.241175 -0.156528
v 0.332868 0.162114 -0.157163
v 0.297812 0.141175 -0.156528
v 0.297812 0.141175 -0.190614
v 0.332868 0.162114 -0.189979
v 0.332868 0.207719 -0.161430
v 0.332868 0.207719 -0.185712
v 0.332868 0.174631 -0.161430
v 0.332868 0.174631 -0.185712
v 0.363274 0.207719 -0.161430
v 0.363274 0.207719 -0.185712
v 0.363274 0.174631 -0.161430
v 0.363274 0.174631 -0.185712
v 0.370000 0.212298 -0.161430
v 0.370000 0.212298 -0.185712
v 0.380871 0.181046 -0.161430
v 0.380871 0.181046 -0.185712
v 0.374169 0.224151 -0.161430
v 0.374169 0.224151 -0.185712
v 0.395803 0.199115 -0.161430
v 0.395803 0.199115 -0.185712
v 0.374294 0.229702 -0.161430
v 0.374294 0.229702 -0.185712
v 0.399378 0.229651 -0.161430
v 0.399378 0.229651 -0.185712
v -0.335501 1.098152 -0.174140
v -0.335501 1.098152 -0.206955
v -0.300445 1.077213 -0.207590
v -0.300445 1.077213 -0.173505
v -0.335501 1.156274 -0.174140
v -0.300445 1.177213 -0.173505
v -0.300445 1.177213 -0.207590
v -0.335501 1.156274 -0.206955
v -0.335501 1.110669 -0.178406
v -0.335501 1.110669 -0.202689
v -0.335501 1.143757 -0.178406
v -0.335501 1.143757 -0.202689
v -0.365908 1.110669 -0.178406
v -0.365908 1.110669 -0.202689
v -0.365908 1.143757 -0.178406
v -0.365908 1.143757 -0.202689
v -0.372633 1.106090 -0.178406
v -0.372633 1.106090 -0.202689
v -0.383504 1.137342 -0.178406
v -0.383504 1.137342 -0.202688
v -0.376802 1.094236 -0.178406
v -0.376802 1.094236 -0.202688
v -0.398436 1.119273 -0.178406
v -0.398436 1.119273 -0.202688
v -0.376927 1.088686 -0.178406
v -0.376927 1.088686 -0.202688
v -0.402011 1.088736 -0.178406
v -0.402011 1.088736 -0.202688
v -0.335501 0.220236 -0.222116
v -0.335501 0.220236 -0.189300
v -0.300445 0.241175 -0.188665
v -0.300445 0.241175 -0.222751
v -0.335501 0.162114 -0.222116
v -0.300445 0.141175 -0.222751
v -0.300445 0.141175 -0.188665
v -0.335501 0.162114 -0.189300
v -0.335501 0.207719 -0.217849
v -0.335501 0.207719 -0.193567
v -0.335501 0.174631 -0.217849
v -0.335501 0.174631 -0.193567
v -0.365908 0.207719 -0.217849
v -0.365908 0.207719 -0.193567
v -0.365908 0.174631 -0.217849
v -0.365908 0.174631 -0.193567
v -0.372633 0.212298 -0.217849
v -0.372633 0.212298 -0.193567
v -0.383504 0.181046 -0.217849
v -0.383504 0.181046 -0.193567
v -0.376802 0.224151 -0.217849
v -0.376802 0.224151 -0.193567
v -0.398436 0.199115 -0.217849
v -0.398436 0.199115 -0.193567
v -0.376927 0.229702 -0.217849
v -0.376927 0.229702 -0.193567
v -0.402011 0.229651 -0.217849
v -0.402011 0.229651 -0.193567
v -0.335501 1.098152 0.195175
v -0.335501 1.098152 0.162360
v -0.300445 1.077213 0.161725
v -0.300445 1.077213 0.195810
v -0.335501 1.156274 0.195175
v -0.300445 1.177213 0.195810
v -0.300445 1.177213 0.161725
v -0.335501 1.156274 0.162360
v -0.335501 1.110669 0.190909
v -0.335501 1.110669 0.166626
v -0.335501 1.143757 0.190909
v -0.335501 1.143757 0.166626
v -0.365908 1.110669 0.190909
v -0.365908 1.110669 0.166626
v -0.365908 1.143757 0.190909
v -0.365908 1.143757 0.166626
v -0.372633 1.106090 0.190909
v -0.372633 1.106090 0.166626
v -0.383504 1.137342 0.190909
v -0.383504 1.137342 0.166626
v -0.376802 1.094236 0.190909
v -0.376802 1.094236 0.166626
v -0.398436 1.119273 0.190909
v -0.398436 1.119273 0.166626
v -0.376927 1.088686 0.190909
v -0.376927 1.088686 0.166626
v -0.402011 1.088737 0.190909
v -0.402011 1.088737 0.166626
v -0.335501 0.220236 0.147199
v -0.335501 0.220236 0.180014
v -0.300445 0.241175 0.180649
v -0.300445 0.241175 0.146564
v -0.335501 0.162114 0.147199
v -0.300445 0.141175 0.146564
v -0.300445 0.141175 0.180649
v -0.335501 0.162114 0.180014
v -0.335501 0.207719 0.151465
v -0.335501 0.207719 0.175748
v -0.335501 0.174631 0.151465
v -0.335501 0.174631 0.175748
v -0.365908 0.207719 0.151465
v -0.365908 0.207719 0.175748
v -0.365908 0.174631 0.151465
v -0.365908 0.174631 0.175748
v -0.372633 0.212298 0.151465
v -0.372633 0.212298 0.175748
v -0.383504 0.181046 0.151465
v -0.383504 0.181046 0.175748
v -0.376802 0.224151 0.151465
v -0.376802 0.224151 0.175748
v -0.398436 0.199115 0.151465
v -0.398436 0.199115 0.175748
v -0.376927 0.229702 0.151465
v -0.376927 0.229702 0.175748
v -0.402011 0.229651 0.151465
v -0.402011 0.229651 0.175748
v -0.262085 0.984988 0.300728
v -0.195023 0.984988 0.314141
v -0.195003 1.165262 0.314141
v -0.261919 1.165235 0.300761
v -0.306061 0.984988 0.256753
v -0.306078 1.165162 0.256669
v -0.319473 0.984988 0.189690
v -0.319473 1.165267 0.189672
v 0.272527 1.213706 -0.249147
v 0.250955 1.213706 -0.279890
v 0.252486 1.213706 -0.198427
v 0.286913 1.213706 -0.199339
v 0.252486 1.213706 0.187762
v 0.286913 1.213706 0.188674
v -0.193985 1.213706 -0.292262
v -0.193095 1.213706 -0.198427
v 0.193094 1.213706 -0.198427
v 0.193984 1.213706 -0.292262
v -0.193095 1.213706 0.187762
v 0.193094 1.213706 0.187762
v -0.250956 1.213706 -0.279890
v -0.252487 1.213706 -0.198427
v -0.252487 1.213706 0.187762
v -0.250956 1.213706 0.269226
v -0.193985 1.213706 0.281597
v 0.193984 1.213706 0.281597
v 0.272527 1.213706 0.238482
v 0.250955 1.213706 0.269226
v -0.272528 1.213706 -0.249147
v -0.286913 1.213706 -0.199339
v -0.286913 1.213706 0.188674
v -0.272528 1.213706 0.238482
v 0.195002 1.165262 0.314141
v 0.195022 0.984988 0.314141
v 0.319473 1.165267 -0.200337
v 0.319473 1.165267 0.189672
v 0.319473 0.984988 0.189690
v 0.319473 0.984988 -0.200355
v -0.195003 1.165262 -0.324805
v 0.195002 1.165262 -0.324805
v 0.195022 0.984988 -0.324805
v -0.195023 0.984988 -0.324805
v -0.319473 1.165267 -0.200336
v -0.319473 0.984988 -0.200355
v 0.261919 1.165235 0.300761
v 0.262084 0.984988 0.300728
v 0.306077 1.165162 -0.267333
v 0.306060 0.984988 -0.267418
v -0.261919 1.165235 -0.311426
v -0.262085 0.984988 -0.311393
v 0.306077 1.165162 0.256669
v 0.306060 0.984988 0.256753
v 0.261919 1.165235 -0.311426
v 0.262084 0.984988 -0.311393
v -0.306078 1.165162 -0.267333
v -0.306061 0.984988 -0.267418
v 0.194733 1.191458 0.303308
v -0.194734 1.191458 0.303308
v 0.308626 1.191491 -0.200082
v 0.308626 1.191491 0.189418
v -0.194734 1.191458 -0.313972
v 0.194733 1.191458 -0.313972
v -0.308626 1.191491 0.189418
v -0.308626 1.191491 -0.200082
v 0.261306 1.191458 0.290022
v -0.261307 1.191458 0.290022
v 0.296490 1.190908 -0.261811
v -0.261307 1.191458 -0.300686
v 0.296490 1.190908 0.251146
v -0.296491 1.190908 0.251146
v 0.261306 1.191458 -0.300686
v -0.296491 1.190908 -0.261811
v -0.193095 0.982485 0.294668
v 0.193094 0.982485 0.294668
v 0.194776 0.982485 0.311650
v -0.194776 0.982485 0.311650
v 0.252486 0.982485 0.282790
v 0.260905 0.982485 0.298521
v 0.288122 0.982485 0.247154
v 0.303853 0.982485 0.255573
v 0.300000 0.982485 0.187762
v 0.316981 0.982485 0.189444
v 0.300000 0.982485 -0.198427
v 0.316981 0.982485 -0.200108
v 0.288122 0.982485 -0.257819
v 0.303853 0.982485 -0.266237
v 0.252486 0.982485 -0.293454
v 0.260905 0.982485 -0.309185
v 0.193094 0.982485 -0.305333
v 0.194776 0.982485 -0.322314
v -0.193095 0.982485 -0.305333
v -0.194776 0.982485 -0.322314
v -0.252487 0.982485 -0.293454
v -0.260906 0.982485 -0.309185
v -0.288122 0.982485 -0.257819
v -0.303853 0.982485 -0.266237
v -0.300001 0.982485 -0.198427
v -0.316982 0.982485 -0.200108
v -0.300001 0.982485 0.187762
v -0.316982 0.982485 0.189444
v -0.288122 0.982485 0.247155
v -0.303853 0.982485 0.255573
v -0.252487 0.982485 0.282790
v -0.260906 0.982485 0.298521
v -0.262085 0.322121 -0.311393
v -0.195023 0.322121 -0.324805
v -0.195003 0.141847 -0.324805
v -0.261919 0.141874 -0.311426
v -0.306061 0.322121 -0.267418
v -0.306078 0.141947 -0.267333
v -0.319473 0.322121 -0.200355
v -0.319473 0.141842 -0.200337
v 0.272527 0.093403 0.238482
v 0.250955 0.093403 0.269226
v 0.252486 0.093403 0.187762
v 0.286913 0.093403 0.188674
v 0.252486 0.093403 -0.198427
v 0.286913 0.093403 -0.199339
v -0.193985 0.093403 0.281597
v -0.193095 0.093403 0.187762
v 0.193094 0.093403 0.187762
v 0.193984 0.093403 0.281597
v -0.193095 0.093403 -0.198427
v 0.193094 0.093403 -0.198427
v -0.250956 0.093403 0.269226
v -0.252487 0.093403 0.187762
v -0.252487 0.093403 -0.198427
v -0.250956 0.093403 -0.279890
v -0.193985 0.093403 -0.292262
v 0.193984 0.093403 -0.292262
v 0.272527 0.093403 -0.249147
v 0.250955 0.093403 -0.279890
v -0.272528 0.093403 0.238482
v -0.286913 0.093403 0.188674
v -0.286913 0.093403 -0.199339
v -0.272528 0.093403 -0.249147
v 0.195002 0.141847 -0.324805
v 0.195022 0.322121 -0.324805
v 0.319473 0.141842 0.189672
v 0.319473 0.141842 -0.200337
v 0.319473 0.322121 -0.200355
v 0.319473 0.322121 0.189690
v -0.195003 0.141847 0.314141
v 0.195002 0.141847 0.314141
v 0.195022 0.322121 0.314141
v -0.195023 0.322121 0.314141
v -0.319473 0.141842 0.189672
v -0.319473 0.322121 0.189690
v 0.261919 0.141874 -0.311426
v 0.262084 0.322121 -0.311393
v 0.306077 0.141947 0.256669
v 0.306060 0.322121 0.256753
v -0.261919 0.141874 0.300761
v -0.262085 0.322121 0.300728
v 0.306077 0.141947 -0.267333
v 0.306060 0.322121 -0.267418
v 0.261919 0.141874 0.300761
v 0.262084 0.322121 0.300728
v -0.306078 0.141947 0.256669
v -0.306061 0.322121 0.256753
v 0.194733 0.115651 -0.313972
v -0.194734 0.115651 -0.313972
v 0.308626 0.115618 0.189418
v 0.308626 0.115618 -0.200082
v -0.194734 0.115651 0.303308
v 0.194733 0.115651 0.303307
v -0.308626 0.115618 -0.200082
v -0.308626 0.115618 0.189418
v 0.261306 0.115651 -0.300686
v -0.261307 0.115651 -0.300686
v 0.296490 0.116201 0.251146
v -0.261307 0.115651 0.290022
v 0.296490 0.116201 -0.261811
v -0.296491 0.116201 -0.261811
v 0.261306 0.115651 0.290022
v -0.296491 0.116201 0.251146
v -0.193095 0.324624 -0.305333
v 0.193094 0.324624 -0.305333
v 0.194776 0.324624 -0.322314
v -0.194776 0.324624 -0.322314
v 0.252486 0.324624 -0.293454
v 0.260905 0.324624 -0.309185
v 0.288122 0.324624 -0.257819
v 0.303853 0.324624 -0.266238
v 0.300000 0.324624 -0.198427
v 0.316981 0.324624 -0.200108
v 0.300000 0.324624 0.187762
v 0.316981 0.324624 0.189444
v 0.288122 0.324624 0.247154
v 0.303853 0.324624 0.255573
v 0.252486 0.324624 0.282790
v 0.260905 0.324624 0.298521
v 0.193094 0.324624 0.294668
v 0.194776 0.324624 0.311650
v -0.193095 0.324624 0.294668
v -0.194776 0.324624 0.311650
v -0.252487 0.324624 0.282790
v -0.260906 0.324624 0.298521
v -0.288122 0.324624 0.247154
v -0.303853 0.324624 0.255573
v -0.300001 0.324624 0.187762
v -0.316982 0.324624 0.189444
v -0.300001 0.324624 -0.198427
v -0.316982 0.324624 -0.200108
v -0.288122 0.324624 -0.257819
v -0.303853 0.324624 -0.266238
v -0.252487 0.324624 -0.293454
v -0.260906 0.324624 -0.309185
vt 0.020274 0.100293
vt 0.039459 0.119120
vt 0.020274 0.118763
vt 0.061657 0.100207
vt 0.080485 0.119392
vt 0.062015 0.119392
vt 0.420234 0.763255
vt 0.439214 0.748249
vt 0.439214 0.759281
vt 0.783728 0.043986
vt 0.768723 0.025007
vt 0.787702 0.025007
vt 0.187161 0.687229
vt 0.189536 0.671334
vt 0.189536 0.684853
vt 0.198191 0.668958
vt 0.187161 0.668958
vt 0.198191 0.687229
vt 0.195816 0.671334
vt 0.195816 0.684853
vt 0.059596 0.723479
vt 0.042866 0.709738
vt 0.059596 0.709738
vt 0.003594 0.652937
vt 0.009877 0.636465
vt 0.009877 0.652937
vt 0.290101 0.835380
vt 0.276441 0.852011
vt 0.276441 0.835380
vt 0.007976 0.666328
vt 0.001693 0.682800
vt 0.001693 0.666328
vt 0.042866 0.723479
vt 0.039165 0.709738
vt 0.004812 0.626933
vt 0.010747 0.632822
vt 0.290101 0.852011
vt 0.276441 0.861636
vt 0.007976 0.682800
vt 0.002911 0.692333
vt 0.039165 0.723479
vt 0.036872 0.709738
vt 0.008243 0.618844
vt 0.012998 0.630564
vt 0.290101 0.861636
vt 0.276441 0.869803
vt 0.008846 0.686444
vt 0.006343 0.700421
vt 0.325975 0.988716
vt 0.339494 0.987663
vt 0.339494 0.988716
vt 0.014042 0.616908
vt 0.014052 0.630496
vt 0.188209 0.715327
vt 0.193544 0.729080
vt 0.187735 0.728878
vt 0.011097 0.688702
vt 0.012142 0.702358
vt 0.058377 0.080932
vt 0.039549 0.100117
vt 0.039907 0.080932
vt 0.061929 0.080842
vt 0.081114 0.062015
vt 0.081114 0.080485
vt 0.542807 0.802348
vt 0.523827 0.817351
vt 0.523827 0.806321
vt 0.669229 0.230176
vt 0.650248 0.215172
vt 0.669229 0.211198
vt 0.335049 0.793674
vt 0.332674 0.777779
vt 0.335049 0.775403
vt 0.324019 0.793674
vt 0.332674 0.791298
vt 0.324019 0.775403
vt 0.326394 0.791298
vt 0.326394 0.777779
vt 0.086208 0.723479
vt 0.069477 0.709738
vt 0.086208 0.709738
vt 0.185734 0.666329
vt 0.179451 0.682800
vt 0.179451 0.666329
vt 0.044749 0.759553
vt 0.028118 0.745894
vt 0.044749 0.745894
vt 0.181351 0.652937
vt 0.187635 0.636465
vt 0.187635 0.652937
vt 0.069477 0.723479
vt 0.065777 0.709738
vt 0.184516 0.692333
vt 0.178581 0.686444
vt 0.028118 0.759553
vt 0.018493 0.745894
vt 0.181351 0.636465
vt 0.186417 0.626933
vt 0.065777 0.723479
vt 0.063483 0.709738
vt 0.181084 0.700421
vt 0.176330 0.688702
vt 0.018493 0.759553
vt 0.010326 0.745894
vt 0.180482 0.632822
vt 0.182985 0.618844
vt 0.347936 0.823594
vt 0.334416 0.824647
vt 0.334416 0.823594
vt 0.175285 0.702358
vt 0.175276 0.688770
vt 0.363056 0.726529
vt 0.357720 0.712776
vt 0.363529 0.712978
vt 0.178231 0.630564
vt 0.177186 0.616908
vt 0.357247 0.726326
vt 0.194017 0.715530
vt 0.177177 0.630496
vt 0.325975 0.987663
vt 0.001357 0.119392
vt 0.020184 0.100207
vt 0.019827 0.119392
vt 0.119392 0.100117
vt 0.100564 0.080932
vt 0.119034 0.080932
vt 0.420234 0.801969
vt 0.439214 0.786964
vt 0.439214 0.797995
vt 0.764368 0.043986
vt 0.749363 0.025007
vt 0.768342 0.025007
vt 0.331622 0.794412
vt 0.333997 0.810306
vt 0.331622 0.812682
vt 0.342652 0.794412
vt 0.333997 0.796787
vt 0.340277 0.810306
vt 0.340277 0.796787
vt 0.342652 0.812682
vt 0.032985 0.723479
vt 0.016255 0.709738
vt 0.032985 0.709738
vt 0.346942 0.812245
vt 0.363414 0.818528
vt 0.346942 0.818528
vt 0.084666 0.759553
vt 0.068035 0.745894
vt 0.084666 0.745894
vt 0.297436 0.820429
vt 0.280964 0.814145
vt 0.297436 0.814145
vt 0.016255 0.723479
vt 0.012554 0.709738
vt 0.372946 0.813463
vt 0.367058 0.819398
vt 0.068035 0.759553
vt 0.058410 0.745894
vt 0.280964 0.820429
vt 0.271432 0.815364
vt 0.012554 0.723479
vt 0.010260 0.709738
vt 0.381035 0.816894
vt 0.369316 0.821649
vt 0.058410 0.759553
vt 0.050243 0.745894
vt 0.277320 0.821298
vt 0.263343 0.818795
vt 0.191740 0.632936
vt 0.192793 0.646456
vt 0.191740 0.646456
vt 0.382972 0.822693
vt 0.369383 0.822703
vt 0.363055 0.768347
vt 0.357720 0.754593
vt 0.363529 0.754796
vt 0.275062 0.823550
vt 0.261406 0.824594
vt 0.001357 0.100117
vt 0.020185 0.080932
vt 0.019827 0.100117
vt 0.081203 0.080842
vt 0.100388 0.062015
vt 0.100388 0.080485
vt 0.542807 0.782991
vt 0.523827 0.797994
vt 0.523827 0.786964
vt 0.669229 0.191455
vt 0.650248 0.176451
vt 0.669229 0.172478
vt 0.286039 0.788008
vt 0.301934 0.785633
vt 0.304310 0.788008
vt 0.288415 0.779353
vt 0.288415 0.785633
vt 0.304310 0.776978
vt 0.286039 0.776978
vt 0.301934 0.779353
vt 0.112819 0.723479
vt 0.096088 0.709738
vt 0.112819 0.709738
vt 0.297436 0.998187
vt 0.280964 0.991903
vt 0.297436 0.991903
vt 0.290101 0.875297
vt 0.276441 0.891928
vt 0.276441 0.875297
vt 0.346942 0.990002
vt 0.363414 0.996286
vt 0.346942 0.996286
vt 0.096088 0.723479
vt 0.092388 0.709738
vt 0.271432 0.996968
vt 0.277320 0.991033
vt 0.290101 0.891928
vt 0.276441 0.901553
vt 0.363414 0.990002
vt 0.372946 0.995067
vt 0.092388 0.723479
vt 0.090094 0.709738
vt 0.263343 0.993537
vt 0.275062 0.988782
vt 0.290101 0.901553
vt 0.276441 0.909720
vt 0.367057 0.989133
vt 0.381035 0.991636
vt 0.356862 0.654897
vt 0.355809 0.641377
vt 0.356862 0.641377
vt 0.261406 0.987738
vt 0.274994 0.987728
vt 0.188209 0.757144
vt 0.193544 0.770898
vt 0.187735 0.770695
vt 0.369316 0.986882
vt 0.382972 0.985837
vt 0.194017 0.757347
vt 0.357247 0.768144
vt 0.369383 0.985828
vt 0.192793 0.632936
vt 0.020274 0.081018
vt 0.039459 0.099845
vt 0.020274 0.099488
vt 0.062015 0.100117
vt 0.080842 0.080932
vt 0.080485 0.100117
vt 0.420234 0.821326
vt 0.439214 0.806321
vt 0.439214 0.817352
vt 0.803088 0.043986
vt 0.788083 0.025007
vt 0.807062 0.025007
vt 0.301209 0.794412
vt 0.303585 0.810306
vt 0.301209 0.812682
vt 0.312239 0.794412
vt 0.303585 0.796787
vt 0.312239 0.812682
vt 0.309864 0.796787
vt 0.309864 0.810306
vt 0.143316 0.709738
vt 0.160047 0.723479
vt 0.143316 0.723479
vt 0.185734 0.702444
vt 0.179451 0.718916
vt 0.179451 0.702444
vt 0.276441 0.989553
vt 0.290101 0.972922
vt 0.290101 0.989553
vt 0.007976 0.738559
vt 0.001693 0.755031
vt 0.001693 0.738559
vt 0.160047 0.709738
vt 0.163747 0.723479
vt 0.184516 0.728448
vt 0.178581 0.722559
vt 0.276441 0.963298
vt 0.290101 0.963298
vt 0.007976 0.755031
vt 0.002911 0.764563
vt 0.163747 0.709738
vt 0.166041 0.723479
vt 0.181084 0.736537
vt 0.176330 0.724817
vt 0.290101 0.955130
vt 0.008846 0.758674
vt 0.006343 0.772652
vt 0.366366 0.689111
vt 0.365313 0.675591
vt 0.366366 0.675591
vt 0.175285 0.738473
vt 0.175276 0.724885
vt 0.188209 0.694418
vt 0.193544 0.708172
vt 0.187735 0.707969
vt 0.011097 0.760933
vt 0.012142 0.774588
vt 0.020456 0.062015
vt 0.001271 0.080842
vt 0.001271 0.061657
vt 0.119663 0.080485
vt 0.100478 0.061657
vt 0.119663 0.062015
vt 0.542807 0.744276
vt 0.523827 0.759280
vt 0.523827 0.748250
vt 0.650248 0.206842
vt 0.669229 0.191838
vt 0.669229 0.210815
vt 0.263230 0.788008
vt 0.279125 0.785633
vt 0.281500 0.788008
vt 0.263230 0.776978
vt 0.265605 0.785633
vt 0.281500 0.776978
vt 0.265605 0.779353
vt 0.279125 0.779353
vt 0.116705 0.709738
vt 0.133436 0.723479
vt 0.116705 0.723479
vt 0.185734 0.738559
vt 0.179451 0.755031
vt 0.179451 0.738559
vt 0.276441 0.949637
vt 0.290101 0.933005
vt 0.290101 0.949637
vt 0.007976 0.702444
vt 0.001693 0.718916
vt 0.001693 0.702444
vt 0.133436 0.709738
vt 0.137136 0.723479
vt 0.184516 0.764563
vt 0.178581 0.758674
vt 0.276441 0.933005
vt 0.290101 0.923381
vt 0.007976 0.718916
vt 0.002911 0.728448
vt 0.137136 0.709738
vt 0.139430 0.723479
vt 0.181084 0.772652
vt 0.176330 0.760933
vt 0.276441 0.923381
vt 0.290101 0.915214
vt 0.008846 0.722559
vt 0.006343 0.736537
vt 0.201244 0.667150
vt 0.202297 0.680670
vt 0.201244 0.680670
vt 0.175285 0.774589
vt 0.175276 0.761000
vt 0.363056 0.705620
vt 0.357720 0.691867
vt 0.363529 0.692070
vt 0.011097 0.724817
vt 0.012142 0.738473
vt 0.357247 0.705418
vt 0.194017 0.694621
vt 0.012151 0.724885
vt 0.365313 0.689111
vt 0.059006 0.080485
vt 0.039821 0.061657
vt 0.059006 0.062015
vt 0.100117 0.080660
vt 0.080932 0.099488
vt 0.080932 0.081018
vt 0.420234 0.782612
vt 0.439214 0.767607
vt 0.439214 0.778638
vt 0.745007 0.043989
vt 0.730003 0.025008
vt 0.748980 0.025008
vt 0.308812 0.775403
vt 0.311188 0.791298
vt 0.308812 0.793674
vt 0.319842 0.775403
vt 0.311188 0.777779
vt 0.319842 0.793674
vt 0.317467 0.777779
vt 0.317467 0.791298
vt 0.282103 0.812844
vt 0.295844 0.796114
vt 0.295844 0.812844
vt 0.333551 0.998187
vt 0.317079 0.991903
vt 0.333551 0.991903
vt 0.130077 0.745894
vt 0.146708 0.759553
vt 0.130077 0.759553
vt 0.346942 0.803724
vt 0.363414 0.810007
vt 0.346942 0.810007
vt 0.282103 0.796114
vt 0.295844 0.792414
vt 0.307547 0.996968
vt 0.313436 0.991033
vt 0.146708 0.745894
vt 0.156332 0.759554
vt 0.363414 0.803724
vt 0.372946 0.808789
vt 0.282103 0.792414
vt 0.295844 0.790120
vt 0.299458 0.993537
vt 0.311177 0.988782
vt 0.156332 0.745894
vt 0.164500 0.759554
vt 0.367057 0.802854
vt 0.381035 0.805357
vt 0.354961 0.670103
vt 0.353908 0.656583
vt 0.354961 0.656583
vt 0.297521 0.987738
vt 0.311110 0.987728
vt 0.188209 0.736236
vt 0.193544 0.749989
vt 0.187735 0.749786
vt 0.369316 0.800603
vt 0.382972 0.799559
vt 0.039731 0.080485
vt 0.020546 0.061657
vt 0.039731 0.062015
vt 0.100117 0.099935
vt 0.080932 0.118763
vt 0.080932 0.100293
vt 0.542807 0.763634
vt 0.523827 0.778637
vt 0.523827 0.767607
vt 0.669229 0.172095
vt 0.650248 0.157091
vt 0.669229 0.153117
vt 0.327446 0.812682
vt 0.325070 0.796787
vt 0.327446 0.794412
vt 0.316416 0.812682
vt 0.325070 0.810306
vt 0.316416 0.794412
vt 0.318791 0.810306
vt 0.318791 0.796787
vt 0.263095 0.812845
vt 0.276836 0.796114
vt 0.276836 0.812845
vt 0.346942 0.625966
vt 0.363414 0.632249
vt 0.346942 0.632249
vt 0.090160 0.745894
vt 0.106791 0.759553
vt 0.090160 0.759553
vt 0.333551 0.820429
vt 0.317079 0.814145
vt 0.333551 0.814145
vt 0.263095 0.796114
vt 0.276836 0.792414
vt 0.372946 0.627184
vt 0.367058 0.633119
vt 0.106791 0.745894
vt 0.116416 0.759553
vt 0.317079 0.820429
vt 0.307547 0.815364
vt 0.263095 0.792414
vt 0.276836 0.790120
vt 0.381035 0.630616
vt 0.369316 0.635370
vt 0.116416 0.745894
vt 0.124583 0.759553
vt 0.313436 0.821298
vt 0.299458 0.818795
vt 0.189839 0.648142
vt 0.190892 0.661662
vt 0.189839 0.661662
vt 0.382972 0.636415
vt 0.369383 0.636424
vt 0.363056 0.747438
vt 0.357720 0.733684
vt 0.363529 0.733887
vt 0.311177 0.823550
vt 0.297521 0.824594
vt 0.357247 0.747235
vt 0.194017 0.736438
vt 0.311110 0.824604
vt 0.353908 0.670103
vt 0.615129 0.746385
vt 0.580789 0.710029
vt 0.615129 0.709939
vt 0.726505 0.784321
vt 0.689585 0.757833
vt 0.726505 0.757884
vt 0.726505 0.717567
vt 0.689564 0.717556
vt 0.598059 0.298585
vt 0.587210 0.270346
vt 0.605846 0.270854
vt 0.605846 0.054822
vt 0.345998 0.270346
vt 0.555540 0.322590
vt 0.345516 0.322590
vt 0.345998 0.055330
vt 0.555058 0.270346
vt 0.314676 0.315702
vt 0.313847 0.055330
vt 0.313847 0.270346
vt 0.314676 0.009974
vt 0.555540 0.003086
vt 0.345517 0.003086
vt 0.598059 0.027091
vt 0.587210 0.055330
vt 0.586381 0.009974
vt 0.586381 0.315702
vt 0.555058 0.055330
vt 0.302998 0.298585
vt 0.295210 0.054822
vt 0.295210 0.270854
vt 0.302998 0.027091
vt 0.580784 0.746396
vt 0.615129 0.958362
vt 0.580784 0.958351
vt 0.448127 0.631024
vt 0.412983 0.407959
vt 0.448127 0.407969
vt 0.847180 0.029751
vt 0.881474 0.241396
vt 0.847180 0.241385
vt 0.041851 0.987475
vt 0.259004 0.953263
vt 0.258994 0.987475
vt 0.580789 0.994718
vt 0.615129 0.994808
vt 0.448106 0.369652
vt 0.412983 0.369604
vt 0.847185 0.277697
vt 0.881474 0.277786
vt 0.491673 0.771627
vt 0.454753 0.798115
vt 0.454753 0.771678
vt 0.454753 0.731361
vt 0.491694 0.731350
vt 0.412983 0.344454
vt 0.448121 0.344435
vt 0.412751 0.591726
vt 0.378177 0.555122
vt 0.412756 0.555111
vt 0.824814 0.326963
vt 0.861734 0.300475
vt 0.861734 0.326912
vt 0.861734 0.367229
vt 0.824793 0.367240
vt 0.510318 0.714071
vt 0.498011 0.928327
vt 0.498011 0.713658
vt 0.651515 0.558795
vt 0.639595 0.339304
vt 0.651514 0.338885
vt 0.649282 0.093283
vt 0.637023 0.306705
vt 0.637023 0.092872
vt 0.259040 0.940089
vt 0.041368 0.928268
vt 0.259457 0.928268
vt 0.517331 0.682669
vt 0.505542 0.676964
vt 0.517331 0.959316
vt 0.505542 0.965021
vt 0.631698 0.586497
vt 0.644853 0.593647
vt 0.656268 0.062004
vt 0.644525 0.056321
vt 0.527581 0.657571
vt 0.562574 0.650882
vt 0.534760 0.670779
vt 0.527580 0.984414
vt 0.534760 0.971206
vt 0.562574 0.991103
vt 0.619856 0.603855
vt 0.625538 0.615596
vt 0.588992 0.623097
vt 0.666477 0.037003
vt 0.701334 0.030340
vt 0.673629 0.050160
vt 0.491870 0.928475
vt 0.491870 0.713510
vt 0.657469 0.338741
vt 0.657469 0.558939
vt 0.630906 0.092724
vt 0.630906 0.306853
vt 0.041226 0.922363
vt 0.259599 0.922363
vt 0.499454 0.676626
vt 0.499454 0.965359
vt 0.650115 0.596765
vt 0.638461 0.055984
vt 0.524450 0.652287
vt 0.562430 0.644904
vt 0.524450 0.989698
vt 0.562429 0.997082
vt 0.625874 0.621659
vt 0.589140 0.629213
vt 0.663359 0.031740
vt 0.701191 0.024385
vt 0.452479 0.925586
vt 0.443018 0.715488
vt 0.452479 0.716399
vt 0.459096 0.957757
vt 0.443018 0.926497
vt 0.478949 0.977060
vt 0.450332 0.962317
vt 0.511099 0.992692
vt 0.474259 0.985581
vt 0.411576 0.329116
vt 0.357660 0.538536
vt 0.402775 0.326288
vt 0.366265 0.573229
vt 0.366851 0.539532
vt 0.374735 0.604281
vt 0.356957 0.576045
vt 0.381016 0.596658
vt 0.408247 0.618881
vt 0.935919 0.292803
vt 0.988847 0.089290
vt 0.944982 0.295660
vt 0.979621 0.055375
vt 0.979405 0.088214
vt 0.964218 0.032370
vt 0.989140 0.052737
vt 0.936024 0.010397
vt 0.970576 0.025011
vt 0.257950 0.940937
vt 0.041959 0.950132
vt 0.042895 0.940937
vt 0.478949 0.664925
vt 0.511099 0.649293
vt 0.512036 0.658491
vt 0.450332 0.679668
vt 0.474259 0.656404
vt 0.459096 0.684228
vt 0.441630 0.926631
vt 0.441630 0.715355
vt 0.449102 0.962956
vt 0.473601 0.986777
vt 0.510962 0.994042
vt 0.401484 0.325873
vt 0.356312 0.538390
vt 0.355651 0.576439
vt 0.373854 0.605351
vt 0.407828 0.620210
vt 0.946311 0.296079
vt 0.990232 0.089448
vt 0.990476 0.052368
vt 0.971468 0.023978
vt 0.936438 0.009106
vt 0.259024 0.951480
vt 0.041821 0.951480
vt 0.510962 0.647943
vt 0.473601 0.655208
vt 0.449103 0.679029
vt 0.579342 0.721899
vt 0.545002 0.685543
vt 0.579342 0.685453
vt 0.689564 0.780239
vt 0.726484 0.806727
vt 0.689564 0.806676
vt 0.689564 0.846993
vt 0.726505 0.847004
vt 0.008787 0.309043
vt 0.019636 0.337282
vt 0.001000 0.336774
vt 0.001000 0.552806
vt 0.260848 0.337282
vt 0.051306 0.285038
vt 0.261329 0.285038
vt 0.260848 0.552298
vt 0.051787 0.337282
vt 0.292170 0.291926
vt 0.292999 0.552298
vt 0.292999 0.337282
vt 0.292170 0.597654
vt 0.051306 0.604542
vt 0.261329 0.604542
vt 0.008787 0.580537
vt 0.019636 0.552298
vt 0.020465 0.597654
vt 0.020465 0.291926
vt 0.051787 0.552298
vt 0.303848 0.309043
vt 0.311635 0.552806
vt 0.311635 0.336774
vt 0.303848 0.580537
vt 0.544997 0.721910
vt 0.579342 0.933876
vt 0.544997 0.933865
vt 0.483215 0.631024
vt 0.448071 0.407959
vt 0.483215 0.407969
vt 0.806969 0.046985
vt 0.841262 0.258629
vt 0.806969 0.258618
vt 0.001000 0.778902
vt 0.035212 0.996054
vt 0.001000 0.996044
vt 0.545002 0.970232
vt 0.579342 0.970322
vt 0.483194 0.369652
vt 0.448071 0.369604
vt 0.806974 0.294930
vt 0.841262 0.295020
vt 0.726484 0.883160
vt 0.689564 0.909648
vt 0.689564 0.883211
vt 0.689564 0.842894
vt 0.726505 0.842883
vt 0.448071 0.344454
vt 0.483209 0.344435
vt 0.343094 0.339411
vt 0.377669 0.376015
vt 0.343089 0.376025
vt 0.884174 0.267603
vt 0.921094 0.241115
vt 0.921094 0.267552
vt 0.921094 0.307869
vt 0.884153 0.307880
vt 0.406724 0.714071
vt 0.394416 0.928327
vt 0.394416 0.713658
vt 0.615033 0.542586
vt 0.626953 0.323095
vt 0.626953 0.543006
vt 0.866895 0.024042
vt 0.653474 0.011783
vt 0.867307 0.011783
vt 0.259457 0.909260
vt 0.041784 0.921081
vt 0.041368 0.909260
vt 0.413737 0.682669
vt 0.401948 0.676964
vt 0.413737 0.959316
vt 0.401948 0.965021
vt 0.607136 0.570707
vt 0.620291 0.577857
vt 0.898175 0.031028
vt 0.903858 0.019285
vt 0.423986 0.657571
vt 0.458979 0.650882
vt 0.431165 0.670779
vt 0.423986 0.984414
vt 0.431165 0.971206
vt 0.458979 0.991103
vt 0.595294 0.588065
vt 0.600976 0.599806
vt 0.564431 0.607307
vt 0.923176 0.041237
vt 0.929838 0.076094
vt 0.910019 0.048388
vt 0.388275 0.928475
vt 0.388275 0.713510
vt 0.632907 0.543149
vt 0.632907 0.322951
vt 0.653326 0.005665
vt 0.867455 0.005666
vt 0.041226 0.903355
vt 0.259599 0.903355
vt 0.395860 0.676626
vt 0.395860 0.965359
vt 0.625554 0.580975
vt 0.904194 0.013221
vt 0.420855 0.652287
vt 0.458835 0.644904
vt 0.420855 0.989698
vt 0.458835 0.997082
vt 0.601313 0.605870
vt 0.564578 0.613424
vt 0.928439 0.038119
vt 0.935794 0.075951
vt 0.729096 0.716399
vt 0.738557 0.926497
vt 0.729096 0.925586
vt 0.722479 0.684228
vt 0.738556 0.715488
vt 0.702626 0.664925
vt 0.731242 0.679668
vt 0.670476 0.649293
vt 0.707316 0.656404
vt 0.353059 0.546549
vt 0.388740 0.333306
vt 0.397785 0.336134
vt 0.352230 0.580247
vt 0.343625 0.545553
vt 0.366981 0.603675
vt 0.342921 0.583062
vt 0.394212 0.625898
vt 0.360699 0.611299
vt 0.920600 0.300462
vt 0.973528 0.096950
vt 0.929663 0.303319
vt 0.964302 0.063034
vt 0.964087 0.095874
vt 0.955257 0.032670
vt 0.973821 0.060396
vt 0.948899 0.040029
vt 0.920705 0.018057
vt 0.039093 0.988457
vt 0.255085 0.997652
vt 0.038157 0.997652
vt 0.702626 0.977060
vt 0.670475 0.992692
vt 0.669539 0.983494
vt 0.722479 0.957757
vt 0.707316 0.985581
vt 0.731242 0.962317
vt 0.739944 0.715355
vt 0.739944 0.926631
vt 0.732472 0.679029
vt 0.707974 0.655208
vt 0.670613 0.647943
vt 0.342033 0.545407
vt 0.387205 0.332891
vt 0.341615 0.583457
vt 0.359819 0.612369
vt 0.393793 0.627228
vt 0.930993 0.303739
vt 0.974913 0.097108
vt 0.975157 0.060028
vt 0.956149 0.031638
vt 0.921120 0.016766
vt 0.038020 0.999001
vt 0.255222 0.999001
vt 0.670613 0.994042
vt 0.707974 0.986777
vt 0.732472 0.962956
vt 0.936223 0.524616
vt 0.812555 0.740664
vt 0.811378 0.524616
vt 0.163127 0.244067
vt 0.288143 0.034720
vt 0.288143 0.244067
vt 0.256846 0.901481
vt 0.041830 0.776636
vt 0.256846 0.776637
vt 0.163127 0.034720
vt 0.288143 0.002525
vt 0.157406 0.055385
vt 0.029074 0.034991
vt 0.157406 0.034990
vt 0.157406 0.001000
vt 0.937399 0.740664
vt 0.811209 0.772577
vt 0.939540 0.772577
vt 0.811209 0.792972
vt 0.489252 0.931933
vt 0.456427 0.807089
vt 0.489252 0.807089
vt 0.938037 0.488142
vt 0.809706 0.488142
vt 0.800681 0.294576
vt 0.675577 0.326794
vt 0.675577 0.294576
vt 0.938037 0.467748
vt 0.809706 0.467748
vt 0.800681 0.085081
vt 0.675577 0.085081
vt 0.885137 0.079376
vt 0.919128 0.207707
vt 0.885137 0.207707
vt 0.919128 0.079376
vt 0.939522 0.207707
vt 0.800681 0.052863
vt 0.675577 0.052863
vt 0.039459 0.099935
vt 0.080842 0.100207
vt 0.420234 0.744275
vt 0.772697 0.043986
vt 0.003594 0.636465
vt 0.036872 0.723479
vt 0.290101 0.869803
vt 0.012151 0.688770
vt 0.058734 0.100117
vt 0.061929 0.061657
vt 0.542807 0.821325
vt 0.650248 0.226202
vt 0.185734 0.682800
vt 0.063483 0.723479
vt 0.010326 0.759553
vt 0.347936 0.824647
vt 0.001000 0.100207
vt 0.100207 0.100117
vt 0.420234 0.782990
vt 0.753337 0.043986
vt 0.363414 0.812245
vt 0.010260 0.723479
vt 0.050243 0.759553
vt 0.274994 0.824604
vt 0.001000 0.080932
vt 0.081203 0.061657
vt 0.542807 0.801968
vt 0.650248 0.187481
vt 0.280964 0.998187
vt 0.090094 0.723479
vt 0.290101 0.909720
vt 0.355809 0.654897
vt 0.039459 0.080660
vt 0.061657 0.080932
vt 0.420234 0.802347
vt 0.792057 0.043986
vt 0.185734 0.718916
vt 0.276441 0.972922
vt 0.166041 0.709738
vt 0.276441 0.955130
vt 0.012151 0.761000
vt 0.020456 0.080485
vt 0.100478 0.080842
vt 0.542807 0.763254
vt 0.650248 0.195812
vt 0.185734 0.755031
vt 0.139430 0.709738
vt 0.276441 0.915214
vt 0.202297 0.667150
vt 0.039821 0.080842
vt 0.100117 0.099845
vt 0.420234 0.763633
vt 0.733977 0.043989
vt 0.317079 0.998187
vt 0.282103 0.790120
vt 0.164500 0.745894
vt 0.369383 0.799549
vt 0.020546 0.080842
vt 0.100117 0.119120
vt 0.542807 0.782611
vt 0.650248 0.168121
vt 0.363414 0.625966
vt 0.263095 0.790120
vt 0.124583 0.745894
vt 0.190892 0.648142
vt 0.689570 0.784341
vt 0.412983 0.631034
vt 0.881474 0.029741
vt 0.041841 0.953263
vt 0.491688 0.798135
vt 0.378177 0.591816
vt 0.824799 0.300455
vt 0.510318 0.927914
vt 0.639595 0.558375
vt 0.649282 0.306294
vt 0.041784 0.940089
vt 0.562995 0.662850
vt 0.562995 0.979135
vt 0.588581 0.610839
vt 0.701754 0.042262
vt 0.512036 0.983494
vt 0.411104 0.609818
vt 0.933195 0.019199
vt 0.258886 0.950132
vt 0.726499 0.780220
vt 0.448071 0.631034
vt 0.841262 0.046974
vt 0.035212 0.778892
vt 0.726499 0.909668
vt 0.377669 0.339320
vt 0.884159 0.241095
vt 0.406724 0.927914
vt 0.615033 0.323515
vt 0.653885 0.024042
vt 0.259040 0.921081
vt 0.459401 0.662850
vt 0.459400 0.979135
vt 0.564019 0.595050
vt 0.917917 0.076514
vt 0.669539 0.658491
vt 0.397069 0.616835
vt 0.917877 0.026858
vt 0.254148 0.988457
vt 0.041830 0.901481
vt 0.163127 0.002525
vt 0.029074 0.055385
vt 0.029074 0.001000
vt 0.939540 0.792972
vt 0.456427 0.931933
vt 0.800681 0.326794
vt 0.939522 0.079376
vn 0.5128 -0.8585 0.0000
vn 0.5128 0.8585 0.0000
vn 0.0181 0.0000 -0.9998
vn 0.0181 -0.0000 0.9998
vn 1.0000 0.0000 0.0000
vn 0.0000 -1.0000 0.0000
vn -0.2944 -0.9557 0.0000
vn 0.0000 0.0000 -1.0000
vn 0.0000 1.0000 0.0000
vn 0.1739 0.9848 0.0000
vn 0.0000 -0.0000 1.0000
vn -0.7927 -0.6097 0.0000
vn 0.5769 0.8168 0.0000
vn -0.9838 -0.1794 0.0000
vn 0.9197 0.3927 0.0000
vn -0.9999 -0.0112 0.0000
vn 0.0000 -0.0092 -1.0000
vn -0.7025 -0.0142 -0.7116
vn 0.9983 0.0586 0.0000
vn -0.0000 0.0092 1.0000
vn -0.2944 0.9557 0.0000
vn 0.1739 -0.9848 0.0000
vn -0.7927 0.6097 0.0000
vn 0.5769 -0.8168 0.0000
vn -0.9838 0.1794 0.0000
vn 0.9197 -0.3927 0.0000
vn -0.7066 0.0017 -0.7077
vn 0.0000 0.0088 1.0000
vn 0.9983 -0.0586 0.0000
vn 0.9983 -0.0579 0.0000
vn 0.9983 0.0579 0.0000
vn 0.0000 -0.0088 -1.0000
vn -0.9999 0.0112 0.0000
vn -0.9999 -0.0113 0.0000
vn -0.5128 -0.8585 0.0000
vn -0.5128 0.8585 0.0000
vn -0.0181 -0.0000 0.9998
vn -0.0181 0.0000 -0.9998
vn -1.0000 0.0000 0.0000
vn -0.1739 0.9848 0.0000
vn 0.5628 -0.8266 0.0000
vn -0.5769 0.8168 0.0000
vn 0.9434 -0.3318 0.0000
vn -0.9197 0.3927 0.0000
vn 0.9997 -0.0225 0.0000
vn -0.0000 -0.0092 1.0000
vn -0.0000 -0.0088 1.0000
vn -0.9983 0.0586 0.0000
vn 0.0000 0.0092 -1.0000
vn 0.2945 0.9557 0.0000
vn -0.1739 -0.9848 0.0000
vn 0.7927 0.6096 0.0000
vn -0.5769 -0.8168 0.0000
vn 0.9838 0.1794 0.0000
vn -0.9197 -0.3927 0.0000
vn 0.9999 0.0112 0.0000
vn -0.0000 0.0088 -1.0000
vn -0.9983 -0.0586 0.0000
vn -0.9983 -0.0579 0.0000
vn -0.9983 0.0579 0.0000
vn 0.2945 -0.9557 0.0000
vn 0.7927 -0.6096 0.0000
vn 0.9838 -0.1794 0.0000
vn 0.9999 -0.0112 0.0000
vn 0.9999 -0.0113 0.0000
vn -0.0985 0.0000 0.9951
vn -0.4533 0.1739 0.8743
vn -0.4719 0.0002 0.8816
vn -0.8691 0.1874 0.4577
vn -0.8816 0.0001 0.4719
vn -0.9951 0.0000 0.0985
vn -0.9766 0.1922 0.0960
vn -0.0959 0.1922 0.9767
vn 0.0985 0.0000 0.9951
vn 0.0959 0.1922 0.9767
vn 0.9766 0.1922 0.0960
vn 0.9951 0.0000 -0.0985
vn 0.9766 0.1922 -0.0960
vn 0.0959 0.1922 -0.9767
vn -0.0985 0.0000 -0.9951
vn -0.0959 0.1922 -0.9767
vn -0.9766 0.1922 -0.0960
vn 0.4533 0.1739 0.8743
vn 0.4719 0.0002 0.8816
vn 0.8691 0.1874 -0.4577
vn 0.8816 0.0001 -0.4719
vn -0.4533 0.1739 -0.8743
vn -0.4719 0.0002 -0.8816
vn 0.8691 0.1874 0.4577
vn 0.8816 0.0001 0.4719
vn 0.9951 0.0000 0.0985
vn 0.4719 0.0002 -0.8816
vn 0.4533 0.1739 -0.8743
vn 0.0985 0.0000 -0.9951
vn -0.8691 0.1874 -0.4577
vn -0.8816 0.0001 -0.4719
vn -0.9951 0.0000 -0.0985
vn 0.0791 0.6976 0.7121
vn -0.0843 0.5455 0.8339
vn 0.0843 0.5455 0.8339
vn 0.8296 0.5509 -0.0912
vn 0.7094 0.6969 0.1057
vn 0.8296 0.5509 0.0912
vn -0.0791 0.6976 -0.7121
vn 0.0843 0.5455 -0.8339
vn -0.0843 0.5455 -0.8339
vn -0.7094 0.6969 0.1057
vn -0.8296 0.5509 -0.0912
vn -0.8296 0.5509 0.0912
vn 0.3580 0.7344 0.5766
vn 0.4236 0.5342 0.7315
vn -0.3580 0.7344 0.5766
vn -0.4236 0.5342 0.7315
vn 0.6011 0.7548 -0.2626
vn 0.7389 0.5696 -0.3600
vn -0.3580 0.7344 -0.5766
vn -0.4236 0.5342 -0.7315
vn 0.7389 0.5696 0.3600
vn 0.6011 0.7548 0.2626
vn -0.7389 0.5696 0.3600
vn -0.6011 0.7548 0.2626
vn 0.3580 0.7344 -0.5766
vn 0.4236 0.5342 -0.7315
vn -0.7389 0.5695 -0.3600
vn -0.6011 0.7548 -0.2626
vn 0.0394 -0.9153 -0.4007
vn -0.0394 -0.9154 -0.4007
vn -0.0691 -0.7071 0.7037
vn 0.0692 -0.7069 0.7039
vn -0.0692 -0.7069 0.7039
vn 0.3337 -0.7072 0.6233
vn 0.3337 -0.7070 0.6236
vn 0.6235 -0.7071 0.3337
vn 0.6233 -0.7073 0.3336
vn 0.7038 -0.7070 0.0692
vn 0.7035 -0.7073 -0.0691
vn 0.7038 -0.7070 -0.0692
vn 0.6232 -0.7073 -0.3335
vn 0.6237 -0.7069 -0.3337
vn 0.3336 -0.7073 -0.6232
vn 0.3336 -0.7068 -0.6238
vn 0.0692 -0.7069 -0.7039
vn -0.0692 -0.7069 -0.7039
vn -0.3336 -0.7073 -0.6232
vn -0.3336 -0.7071 -0.6235
vn -0.6236 -0.7070 -0.3337
vn -0.6231 -0.7075 -0.3335
vn -0.7039 -0.7069 -0.0692
vn -0.7037 -0.7071 -0.0691
vn -0.7039 -0.7069 0.0692
vn -0.6232 -0.7074 0.3336
vn -0.6236 -0.7069 0.3337
vn -0.3337 -0.7072 0.6234
vn -0.3336 -0.7070 0.6236
vn -0.4533 -0.1739 -0.8743
vn -0.4719 -0.0002 -0.8816
vn -0.8691 -0.1874 -0.4577
vn -0.8816 -0.0001 -0.4719
vn -0.9766 -0.1922 -0.0960
vn -0.0959 -0.1922 -0.9767
vn 0.0959 -0.1922 -0.9767
vn 0.9766 -0.1922 -0.0960
vn 0.9766 -0.1922 0.0960
vn 0.0959 -0.1922 0.9767
vn -0.0959 -0.1922 0.9767
vn -0.9766 -0.1922 0.0960
vn 0.4533 -0.1739 -0.8743
vn 0.4719 -0.0002 -0.8816
vn 0.8691 -0.1874 0.4577
vn 0.8816 -0.0001 0.4719
vn -0.4533 -0.1739 0.8743
vn -0.4719 -0.0002 0.8816
vn 0.8691 -0.1874 -0.4577
vn 0.8816 -0.0001 -0.4719
vn 0.4719 -0.0002 0.8816
vn 0.4533 -0.1739 0.8743
vn -0.8691 -0.1874 0.4577
vn -0.8816 -0.0001 0.4719
vn 0.0791 -0.6976 -0.7121
vn -0.0843 -0.5455 -0.8339
vn 0.0843 -0.5455 -0.8339
vn 0.7094 -0.6969 0.1057
vn 0.8296 -0.5509 -0.0912
vn 0.8296 -0.5509 0.0912
vn -0.0791 -0.6976 0.7121
vn 0.0843 -0.5455 0.8339
vn -0.0843 -0.5455 0.8339
vn -0.8296 -0.5509 -0.0912
vn -0.7094 -0.6969 0.1057
vn -0.8296 -0.5509 0.0912
vn 0.3580 -0.7344 -0.5766
vn 0.4236 -0.5342 -0.7315
vn -0.3580 -0.7344 -0.5766
vn -0.4236 -0.5342 -0.7315
vn 0.6011 -0.7548 0.2626
vn 0.7389 -0.5696 0.3600
vn -0.3580 -0.7344 0.5766
vn -0.4236 -0.5342 0.7315
vn 0.7389 -0.5696 -0.3600
vn 0.6011 -0.7548 -0.2626
vn -0.7389 -0.5696 -0.3600
vn -0.6011 -0.7548 -0.2626
vn 0.3580 -0.7344 0.5766
vn 0.4236 -0.5342 0.7315
vn -0.7389 -0.5696 0.3600
vn -0.6011 -0.7548 0.2626
vn -0.0691 0.7071 -0.7037
vn 0.0692 0.7069 -0.7039
vn -0.0692 0.7069 -0.7039
vn 0.3336 0.7073 -0.6232
vn 0.3336 0.7071 -0.6235
vn 0.6235 0.7071 -0.3337
vn 0.6233 0.7073 -0.3336
vn 0.7038 0.7070 -0.0692
vn 0.7035 0.7073 -0.0691
vn 0.7038 0.7070 0.0692
vn 0.6233 0.7073 0.3336
vn 0.6235 0.7071 0.3337
vn 0.3337 0.7072 0.6233
vn 0.3337 0.7070 0.6236
vn 0.0692 0.7069 0.7039
vn -0.0691 0.7071 0.7037
vn -0.0692 0.7069 0.7039
vn -0.3337 0.7072 0.6233
vn -0.3337 0.7070 0.6236
vn -0.6234 0.7072 0.3336
vn -0.6232 0.7074 0.3336
vn -0.7039 0.7069 0.0692
vn -0.7037 0.7071 -0.0691
vn -0.7039 0.7069 -0.0692
vn -0.6232 0.7074 -0.3336
vn -0.6237 0.7068 -0.3338
vn -0.3336 0.7073 -0.6232
vn -0.3336 0.7071 -0.6235
vn -0.4719 -0.0000 0.8817
vn -0.8817 -0.0000 0.4719
vn 0.8817 -0.0000 0.4719
vn 0.4719 -0.0000 0.8817
vn 0.8817 0.0000 -0.4719
vn 0.4719 0.0000 -0.8817
vn -0.8817 0.0000 -0.4719
vn -0.4719 0.0000 -0.8817
vn -0.9999 0.0113 0.0000
vn 0.9999 0.0113 0.0000
vn -0.0791 0.6976 0.7121
vn 0.7094 0.6969 -0.1057
vn 0.0791 0.6976 -0.7121
vn -0.7094 0.6969 -0.1057
vn 0.0692 -0.7071 0.7037
vn 0.7036 -0.7073 0.0691
vn -0.7037 -0.7071 0.0692
vn -0.0791 -0.6976 -0.7121
vn 0.7094 -0.6969 -0.1057
vn 0.0791 -0.6976 0.7121
vn -0.7094 -0.6969 -0.1057
vn 0.0692 0.7071 -0.7037
vn 0.7036 0.7073 0.0691
vn 0.0692 0.7071 0.7037
vn -0.7037 0.7071 0.0692
usemtl Default_OBJ.007
s 1
f 2/1/1 4/2/1 1/3/1
f 6/4/2 8/5/2 5/6/2
f 4/7/3 5/8/3 1/9/3
f 2/10/4 7/11/4 3/12/4
f 2/13/5 9/14/5 10/15/5
f 5/16/5 9/14/5 1/17/5
f 8/18/5 11/19/5 5/16/5
f 2/13/5 12/20/5 8/18/5
f 9/21/6 14/22/7 10/23/6
f 11/24/8 13/25/8 9/26/8
f 12/27/9 15/28/10 11/29/9
f 10/30/11 16/31/11 12/32/11
f 13/33/7 18/34/12 14/22/7
f 13/25/8 19/35/8 17/36/8
f 16/37/10 19/38/13 15/28/10
f 14/39/11 20/40/11 16/31/11
f 17/41/12 22/42/14 18/34/12
f 17/36/8 23/43/8 21/44/8
f 20/45/13 23/46/15 19/38/13
f 18/47/11 24/48/11 20/40/11
f 21/49/14 26/50/16 22/51/14
f 21/44/8 27/52/17 25/53/18
f 24/54/15 27/55/19 23/56/15
f 22/57/11 28/58/20 24/48/11
f 30/59/2 32/60/2 29/61/2
f 34/62/1 36/63/1 33/64/1
f 32/65/4 33/66/4 29/67/4
f 31/68/3 36/69/3 35/70/3
f 29/71/5 38/72/5 30/73/5
f 33/74/5 37/75/5 29/71/5
f 36/76/5 39/77/5 33/74/5
f 30/73/5 40/78/5 36/76/5
f 37/79/9 42/80/21 38/81/9
f 39/82/11 41/83/11 37/84/11
f 40/85/6 43/86/22 39/87/6
f 38/88/8 44/89/8 40/90/8
f 41/91/21 46/92/23 42/80/21
f 41/83/11 47/93/11 45/94/11
f 44/95/22 47/96/24 43/86/22
f 42/97/8 48/98/8 44/89/8
f 45/99/23 50/100/25 46/92/23
f 45/94/11 51/101/11 49/102/11
f 48/103/24 51/104/26 47/96/24
f 46/105/8 52/106/8 48/98/8
f 49/107/25 54/108/27 50/109/25
f 49/102/11 55/110/20 53/111/28
f 52/112/26 55/113/29 51/114/26
f 50/115/8 56/116/17 52/106/8
f 56/117/30 28/118/31 55/113/29
f 25/53/18 56/116/17 54/119/27
f 28/58/20 53/111/28 55/110/20
f 54/108/27 26/50/16 25/120/18
f 58/121/1 60/122/1 57/123/1
f 62/124/2 64/125/2 61/126/2
f 60/127/3 61/128/3 57/129/3
f 58/130/4 63/131/4 59/132/4
f 57/133/5 66/134/5 58/135/5
f 61/136/5 65/137/5 57/133/5
f 61/136/5 68/138/5 67/139/5
f 58/135/5 68/138/5 64/140/5
f 65/141/6 70/142/7 66/143/6
f 67/144/8 69/145/8 65/146/8
f 68/147/9 71/148/10 67/149/9
f 66/150/11 72/151/11 68/152/11
f 69/153/7 74/154/12 70/142/7
f 69/145/8 75/155/8 73/156/8
f 72/157/10 75/158/13 71/148/10
f 70/159/11 76/160/11 72/151/11
f 73/161/12 78/162/14 74/154/12
f 73/156/8 79/163/8 77/164/8
f 76/165/13 79/166/15 75/158/13
f 74/167/11 80/168/11 76/160/11
f 77/169/14 82/170/16 78/171/14
f 77/164/8 83/172/17 81/173/32
f 80/174/15 83/175/19 79/176/15
f 78/177/11 84/178/20 80/168/11
f 86/179/2 88/180/2 85/181/2
f 90/182/1 92/183/1 89/184/1
f 88/185/4 89/186/4 85/187/4
f 87/188/3 92/189/3 91/190/3
f 85/191/5 94/192/5 86/193/5
f 85/191/5 95/194/5 93/195/5
f 92/196/5 95/194/5 89/197/5
f 92/196/5 94/192/5 96/198/5
f 93/199/9 98/200/21 94/201/9
f 95/202/11 97/203/11 93/204/11
f 96/205/6 99/206/22 95/207/6
f 94/208/8 100/209/8 96/210/8
f 97/211/21 102/212/23 98/200/21
f 97/203/11 103/213/11 101/214/11
f 100/215/22 103/216/24 99/206/22
f 98/217/8 104/218/8 100/209/8
f 101/219/23 106/220/25 102/212/23
f 101/214/11 107/221/11 105/222/11
f 104/223/24 107/224/26 103/216/24
f 102/225/8 108/226/8 104/218/8
f 105/227/25 110/228/33 106/229/25
f 105/222/11 111/230/20 109/231/28
f 108/232/26 111/233/29 107/234/26
f 106/235/8 112/236/17 108/226/8
f 112/237/30 84/238/31 111/233/29
f 110/239/32 83/172/17 112/236/17
f 84/178/20 109/231/28 111/230/20
f 110/228/33 82/170/16 81/240/34
f 114/241/35 116/242/35 113/243/35
f 117/244/36 119/245/36 120/246/36
f 116/247/37 117/248/37 113/249/37
f 114/250/38 119/251/38 115/252/38
f 113/253/39 122/254/39 114/255/39
f 117/256/39 121/257/39 113/253/39
f 120/258/39 123/259/39 117/256/39
f 114/255/39 124/260/39 120/258/39
f 121/261/6 126/262/6 122/263/6
f 123/264/11 125/265/11 121/266/11
f 124/267/9 127/268/40 123/269/9
f 122/270/8 128/271/8 124/272/8
f 125/273/41 130/274/41 126/262/41
f 125/265/11 131/275/11 129/276/11
f 127/268/40 132/277/42 131/278/42
f 126/279/8 132/280/8 128/271/8
f 129/281/43 134/282/43 130/274/43
f 129/276/11 135/283/11 133/284/11
f 132/277/42 135/285/44 131/278/42
f 130/286/8 136/287/8 132/280/8
f 133/288/45 138/289/45 134/290/45
f 133/284/11 139/291/46 137/292/47
f 136/293/44 139/294/48 135/295/44
f 134/296/8 140/297/49 136/287/8
f 141/298/36 143/299/36 144/300/36
f 145/301/35 147/302/35 148/303/35
f 144/304/38 145/305/38 141/306/38
f 142/307/37 147/308/37 143/309/37
f 141/310/39 150/311/39 142/312/39
f 145/313/39 149/314/39 141/310/39
f 148/315/39 151/316/39 145/313/39
f 142/312/39 152/317/39 148/315/39
f 149/318/9 154/319/50 150/320/9
f 151/321/8 153/322/8 149/323/8
f 152/324/6 155/325/51 151/326/6
f 150/327/11 156/328/11 152/329/11
f 153/330/50 158/331/52 154/319/50
f 153/322/8 159/332/8 157/333/8
f 156/334/51 159/335/53 155/325/51
f 154/336/11 160/337/11 156/328/11
f 157/338/52 162/339/54 158/331/52
f 157/333/8 163/340/8 161/341/8
f 160/342/53 163/343/55 159/335/53
f 158/344/11 164/345/11 160/337/11
f 161/346/54 166/347/56 162/348/54
f 161/341/8 167/349/49 165/350/57
f 164/351/55 167/352/58 163/353/55
f 162/354/11 168/355/46 164/345/11
f 168/356/59 140/357/60 167/352/58
f 166/358/47 139/291/46 168/355/46
f 140/297/49 165/350/57 167/349/49
f 166/347/56 138/289/5 137/359/5
f 170/360/35 172/361/35 169/362/35
f 174/363/36 176/364/36 173/365/36
f 172/366/37 173/367/37 169/368/37
f 170/369/38 175/370/38 171/371/38
f 169/372/39 178/373/39 170/374/39
f 173/375/39 177/376/39 169/372/39
f 176/377/39 179/378/39 173/375/39
f 170/374/39 180/379/39 176/377/39
f 177/380/6 182/381/61 178/382/6
f 179/383/11 181/384/11 177/385/11
f 180/386/9 183/387/40 179/388/9
f 178/389/8 184/390/8 180/391/8
f 181/392/61 186/393/62 182/381/61
f 181/384/11 187/394/11 185/395/11
f 184/396/40 187/397/42 183/387/40
f 182/398/8 188/399/8 184/390/8
f 185/400/62 190/401/63 186/393/62
f 185/395/11 191/402/11 189/403/11
f 188/404/42 191/405/44 187/397/42
f 186/406/8 192/407/8 188/399/8
f 189/408/63 194/409/64 190/410/63
f 189/403/11 195/411/46 193/412/47
f 192/413/44 195/414/48 191/415/44
f 190/416/8 196/417/49 192/407/8
f 198/418/36 200/419/36 197/420/36
f 202/421/35 204/422/35 201/423/35
f 200/424/38 201/425/38 197/426/38
f 199/427/37 204/428/37 203/429/37
f 197/430/39 206/431/39 198/432/39
f 201/433/39 205/434/39 197/430/39
f 204/435/39 207/436/39 201/433/39
f 198/432/39 208/437/39 204/435/39
f 205/438/9 210/439/50 206/440/9
f 207/441/8 209/442/8 205/443/8
f 208/444/6 211/445/51 207/446/6
f 206/447/11 212/448/11 208/449/11
f 209/450/50 214/451/52 210/439/50
f 209/442/8 215/452/8 213/453/8
f 212/454/51 215/455/53 211/445/51
f 210/456/11 216/457/11 212/448/11
f 213/458/52 218/459/54 214/451/52
f 213/453/8 219/460/8 217/461/8
f 216/462/53 219/463/55 215/455/53
f 214/464/11 220/465/11 216/457/11
f 217/466/54 222/467/56 218/468/54
f 217/461/8 223/469/49 221/470/57
f 220/471/55 223/472/58 219/473/55
f 218/474/11 224/475/46 220/465/11
f 224/476/59 196/477/60 223/472/58
f 193/412/47 224/475/46 222/478/47
f 196/417/49 221/470/57 223/469/49
f 222/467/56 194/409/64 193/479/65
f 226/480/66 228/481/67 225/482/68
f 225/483/68 230/484/69 229/485/70
f 231/486/71 230/484/69 232/487/72
f 233/488/9 235/489/9 236/490/9
f 235/489/9 238/491/9 236/490/9
f 240/492/9 242/493/9 239/494/9
f 243/495/9 241/496/9 240/492/9
f 245/497/9 240/492/9 239/494/9
f 247/498/9 240/492/9 246/499/9
f 248/500/9 243/495/9 247/498/9
f 250/501/9 243/495/9 249/502/9
f 251/503/9 237/504/9 252/505/9
f 234/506/9 241/496/9 235/489/9
f 244/507/9 235/489/9 241/496/9
f 244/507/9 252/505/9 237/504/9
f 253/508/9 246/499/9 245/497/9
f 255/509/9 246/499/9 254/510/9
f 247/498/9 256/511/9 248/500/9
f 227/512/73 258/513/74 257/514/75
f 260/515/76 262/516/77 259/517/78
f 264/518/79 266/519/80 263/520/81
f 267/521/82 231/522/71 232/523/72
f 269/524/83 258/513/74 270/525/84
f 271/526/85 262/516/77 272/527/86
f 273/528/87 266/519/80 274/529/88
f 275/530/89 270/531/84 276/532/90
f 275/530/89 261/533/91 260/534/76
f 271/526/85 278/535/92 277/536/93
f 277/537/93 265/538/94 264/539/79
f 279/540/95 274/541/88 280/542/96
f 279/540/95 268/543/97 267/544/82
f 250/545/98 282/546/99 281/547/100
f 283/548/101 238/549/102 284/550/103
f 239/551/104 286/552/105 285/553/106
f 255/554/107 288/555/108 287/556/109
f 252/557/110 281/547/100 289/558/111
f 282/546/99 248/559/112 290/560/113
f 233/561/114 283/548/101 291/562/115
f 245/563/116 285/553/106 292/564/117
f 293/565/118 252/557/110 289/558/111
f 284/566/103 251/567/119 293/565/118
f 248/559/112 294/568/120 290/560/113
f 256/569/121 287/570/109 294/568/120
f 234/571/122 291/562/115 295/572/123
f 286/573/105 234/571/122 295/572/123
f 296/574/124 245/563/116 292/564/117
f 288/575/108 253/576/125 296/574/124
f 281/547/100 227/577/73 257/578/75
f 283/548/101 260/579/76 259/580/78
f 263/581/81 286/552/105 264/582/79
f 287/556/109 267/583/82 232/584/72
f 269/585/83 281/547/100 257/578/75
f 282/546/99 228/586/67 227/577/73
f 291/562/115 259/580/78 271/587/85
f 273/588/87 285/553/106 263/581/81
f 275/589/89 289/558/111 269/585/83
f 260/590/76 293/565/118 275/589/89
f 290/560/113 230/591/69 228/586/67
f 294/568/120 232/592/72 230/591/69
f 295/572/123 271/587/85 277/593/93
f 286/573/105 277/593/93 264/594/79
f 279/595/95 292/564/117 273/588/87
f 267/596/82 296/574/124 279/595/95
f 298/597/6 300/598/6 297/599/6
f 301/600/6 299/601/6 298/597/6
f 303/602/6 302/603/6 301/600/6
f 303/602/6 306/604/6 304/605/6
f 305/606/6 308/607/6 306/608/6
f 309/609/6 308/607/6 307/610/6
f 309/609/6 312/611/6 310/612/6
f 311/613/6 314/614/126 312/611/6
f 313/615/6 316/616/127 314/617/126
f 317/618/6 316/616/127 315/619/6
f 319/620/6 318/621/6 317/618/6
f 319/620/6 322/622/6 320/623/6
f 323/624/6 322/625/6 321/626/6
f 325/627/6 324/628/6 323/629/6
f 325/627/6 328/630/6 326/631/6
f 327/632/6 300/598/6 328/630/6
f 300/598/128 258/633/129 226/634/130
f 258/633/129 302/603/131 270/635/132
f 302/603/131 276/636/133 270/635/132
f 304/605/134 261/637/135 276/636/133
f 261/638/135 308/607/136 262/639/137
f 262/639/137 310/612/138 272/640/139
f 272/640/139 312/611/140 278/641/141
f 312/611/140 265/642/142 278/641/141
f 265/643/142 316/616/127 266/644/143
f 266/644/143 318/621/144 274/645/145
f 318/621/144 280/646/146 274/645/145
f 320/623/147 268/647/148 280/646/146
f 322/625/149 231/648/150 268/649/148
f 231/650/150 326/631/151 229/651/152
f 229/651/152 328/630/153 225/652/154
f 328/630/153 226/634/130 225/652/154
f 330/653/80 332/654/155 329/655/156
f 329/656/156 334/657/157 333/658/158
f 335/659/97 334/657/157 336/660/159
f 337/661/6 339/662/6 340/663/6
f 339/662/6 342/664/6 340/663/6
f 344/665/6 346/666/6 343/667/6
f 347/668/6 345/669/6 344/665/6
f 349/670/6 344/665/6 343/667/6
f 351/671/6 344/665/6 350/672/6
f 352/673/6 347/668/6 351/671/6
f 354/674/6 347/668/6 353/675/6
f 355/676/6 341/677/6 356/678/6
f 338/679/6 345/669/6 339/662/6
f 348/680/6 339/662/6 345/669/6
f 348/680/6 356/678/6 341/677/6
f 357/681/6 350/672/6 349/670/6
f 359/682/6 350/672/6 358/683/6
f 351/671/6 360/684/6 352/673/6
f 331/685/160 362/686/94 361/687/161
f 364/688/162 366/689/91 363/690/163
f 368/691/164 370/692/66 367/693/165
f 371/694/166 335/695/97 336/696/159
f 373/697/167 362/686/94 374/698/168
f 375/699/169 366/689/91 376/700/170
f 377/701/171 370/692/66 378/702/172
f 379/703/173 374/704/168 380/705/174
f 379/703/173 365/706/77 364/707/162
f 375/699/169 382/708/175 381/709/176
f 381/710/176 369/711/74 368/712/164
f 383/713/177 378/714/172 384/715/178
f 383/713/177 372/716/71 371/717/166
f 354/718/179 386/719/180 385/720/181
f 340/721/182 388/722/183 387/723/184
f 343/724/185 390/725/186 389/726/187
f 391/727/188 358/728/189 392/729/190
f 356/730/191 385/720/181 393/731/192
f 386/719/180 352/732/193 394/733/194
f 337/734/195 387/723/184 395/735/196
f 349/736/197 389/726/187 396/737/198
f 397/738/199 356/730/191 393/731/192
f 388/739/183 355/740/200 397/738/199
f 352/732/193 398/741/201 394/733/194
f 360/742/202 391/743/188 398/741/201
f 338/744/203 395/735/196 399/745/204
f 390/746/186 338/744/203 399/745/204
f 400/747/205 349/736/197 396/737/198
f 392/748/190 357/749/206 400/747/205
f 385/720/181 331/750/160 361/751/161
f 363/752/163 388/722/183 364/753/162
f 389/726/187 368/754/164 367/755/165
f 391/727/188 371/756/166 336/757/159
f 373/758/167 385/720/181 361/751/161
f 386/719/180 332/759/155 331/750/160
f 395/735/196 363/752/163 375/760/169
f 377/761/171 389/726/187 367/755/165
f 379/762/173 393/731/192 373/758/167
f 364/763/162 397/738/199 379/762/173
f 394/733/194 334/764/157 332/759/155
f 398/741/201 336/765/159 334/764/157
f 399/745/204 375/760/169 381/766/176
f 390/746/186 381/766/176 368/767/164
f 383/768/177 396/737/198 377/761/171
f 371/769/166 400/747/205 383/768/177
f 402/770/9 404/771/9 401/772/9
f 405/773/9 403/774/9 402/770/9
f 407/775/9 406/776/9 405/773/9
f 407/775/9 410/777/9 408/778/9
f 411/779/9 410/780/9 409/781/9
f 413/782/9 412/783/9 411/779/9
f 415/784/9 414/785/9 413/782/9
f 415/784/9 418/786/9 416/787/9
f 417/788/9 420/789/9 418/790/9
f 421/791/9 420/789/9 419/792/9
f 421/791/9 424/793/9 422/794/9
f 423/795/9 426/796/9 424/793/9
f 425/797/9 428/798/9 426/799/9
f 429/800/9 428/801/9 427/802/9
f 431/803/9 430/804/9 429/800/9
f 431/803/9 404/771/9 432/805/9
f 404/771/207 362/806/208 330/807/209
f 362/806/208 406/776/210 374/808/211
f 406/776/210 380/809/212 374/808/211
f 408/778/213 365/810/214 380/809/212
f 410/780/215 366/811/216 365/812/214
f 366/811/216 414/785/217 376/813/218
f 376/813/218 416/787/219 382/814/220
f 416/787/219 369/815/221 382/814/220
f 369/816/221 420/789/222 370/817/223
f 370/817/223 422/794/224 378/818/225
f 422/794/224 384/819/226 378/818/225
f 424/793/227 372/820/228 384/819/226
f 372/821/228 428/798/229 335/822/230
f 335/823/230 430/804/231 333/824/232
f 333/824/232 432/805/233 329/825/234
f 432/805/233 330/807/209 329/825/234
f 307/826/77 411/827/91 409/828/77
f 298/829/74 419/830/66 417/831/74
f 323/832/71 427/833/97 425/834/71
f 297/835/66 421/836/235 419/830/66
f 421/837/235 325/838/236 423/839/236
f 325/838/236 425/840/71 423/839/236
f 305/841/91 413/842/237 411/827/91
f 303/843/237 415/844/238 413/842/237
f 301/845/238 417/846/74 415/847/238
f 309/848/239 409/828/77 407/849/239
f 313/850/94 405/851/240 402/852/94
f 311/853/240 407/849/239 405/854/240
f 315/855/80 402/852/94 401/856/80
f 321/857/97 429/858/241 427/859/97
f 319/860/241 431/861/242 429/858/241
f 317/862/242 401/856/80 431/863/242
f 2/1/1 3/864/1 4/2/1
f 6/4/2 7/865/2 8/5/2
f 4/7/3 6/866/3 5/8/3
f 2/10/4 8/867/4 7/11/4
f 2/13/5 1/17/5 9/14/5
f 5/16/5 11/19/5 9/14/5
f 8/18/5 12/20/5 11/19/5
f 2/13/5 10/15/5 12/20/5
f 9/21/6 13/33/7 14/22/7
f 11/24/8 15/868/8 13/25/8
f 12/27/9 16/37/10 15/28/10
f 10/30/11 14/39/11 16/31/11
f 13/33/7 17/41/12 18/34/12
f 13/25/8 15/868/8 19/35/8
f 16/37/10 20/45/13 19/38/13
f 14/39/11 18/47/11 20/40/11
f 17/41/12 21/869/14 22/42/14
f 17/36/8 19/35/8 23/43/8
f 20/45/13 24/870/15 23/46/15
f 18/47/11 22/57/11 24/48/11
f 21/49/14 25/120/18 26/50/16
f 21/44/8 23/43/8 27/52/17
f 24/54/15 28/118/31 27/55/19
f 22/57/11 26/871/28 28/58/20
f 30/59/2 31/872/2 32/60/2
f 34/62/1 35/873/1 36/63/1
f 32/65/4 34/874/4 33/66/4
f 31/68/3 30/875/3 36/69/3
f 29/71/5 37/75/5 38/72/5
f 33/74/5 39/77/5 37/75/5
f 36/76/5 40/78/5 39/77/5
f 30/73/5 38/72/5 40/78/5
f 37/79/9 41/91/21 42/80/21
f 39/82/11 43/876/11 41/83/11
f 40/85/6 44/95/22 43/86/22
f 38/88/8 42/97/8 44/89/8
f 41/91/21 45/99/23 46/92/23
f 41/83/11 43/876/11 47/93/11
f 44/95/22 48/103/24 47/96/24
f 42/97/8 46/105/8 48/98/8
f 45/99/23 49/877/25 50/100/25
f 45/94/11 47/93/11 51/101/11
f 48/103/24 52/878/26 51/104/26
f 46/105/8 50/115/8 52/106/8
f 49/107/25 53/879/243 54/108/27
f 49/102/11 51/101/11 55/110/20
f 52/112/26 56/117/30 55/113/29
f 50/115/8 54/119/27 56/116/17
f 56/117/30 27/55/19 28/118/31
f 25/53/18 27/52/17 56/116/17
f 28/58/20 26/871/28 53/111/28
f 54/108/27 53/879/243 26/50/16
f 58/121/1 59/880/1 60/122/1
f 62/124/2 63/881/2 64/125/2
f 60/127/3 62/882/3 61/128/3
f 58/130/4 64/883/4 63/131/4
f 57/133/5 65/137/5 66/134/5
f 61/136/5 67/139/5 65/137/5
f 61/136/5 64/140/5 68/138/5
f 58/135/5 66/134/5 68/138/5
f 65/141/6 69/153/7 70/142/7
f 67/144/8 71/884/8 69/145/8
f 68/147/9 72/157/10 71/148/10
f 66/150/11 70/159/11 72/151/11
f 69/153/7 73/161/12 74/154/12
f 69/145/8 71/884/8 75/155/8
f 72/157/10 76/165/13 75/158/13
f 70/159/11 74/167/11 76/160/11
f 73/161/12 77/885/14 78/162/14
f 73/156/8 75/155/8 79/163/8
f 76/165/13 80/886/15 79/166/15
f 74/167/11 78/177/11 80/168/11
f 77/169/14 81/240/34 82/170/16
f 77/164/8 79/163/8 83/172/17
f 80/174/15 84/238/31 83/175/19
f 78/177/11 82/887/28 84/178/20
f 86/179/2 87/888/2 88/180/2
f 90/182/1 91/889/1 92/183/1
f 88/185/4 90/890/4 89/186/4
f 87/188/3 86/891/3 92/189/3
f 85/191/5 93/195/5 94/192/5
f 85/191/5 89/197/5 95/194/5
f 92/196/5 96/198/5 95/194/5
f 92/196/5 86/193/5 94/192/5
f 93/199/9 97/211/21 98/200/21
f 95/202/11 99/892/11 97/203/11
f 96/205/6 100/215/22 99/206/22
f 94/208/8 98/217/8 100/209/8
f 97/211/21 101/219/23 102/212/23
f 97/203/11 99/892/11 103/213/11
f 100/215/22 104/223/24 103/216/24
f 98/217/8 102/225/8 104/218/8
f 101/219/23 105/893/25 106/220/25
f 101/214/11 103/213/11 107/221/11
f 104/223/24 108/894/26 107/224/26
f 102/225/8 106/235/8 108/226/8
f 105/227/25 109/895/243 110/228/33
f 105/222/11 107/221/11 111/230/20
f 108/232/26 112/237/30 111/233/29
f 106/235/8 110/239/32 112/236/17
f 112/237/30 83/175/19 84/238/31
f 110/239/32 81/173/32 83/172/17
f 84/178/20 82/887/28 109/231/28
f 110/228/33 109/895/243 82/170/16
f 114/241/35 115/896/35 116/242/35
f 117/244/36 118/897/36 119/245/36
f 116/247/37 118/898/37 117/248/37
f 114/250/38 120/899/38 119/251/38
f 113/253/39 121/257/39 122/254/39
f 117/256/39 123/259/39 121/257/39
f 120/258/39 124/260/39 123/259/39
f 114/255/39 122/254/39 124/260/39
f 121/261/6 125/273/6 126/262/6
f 123/264/11 127/900/11 125/265/11
f 124/267/9 128/901/40 127/268/40
f 122/270/8 126/279/8 128/271/8
f 125/273/41 129/281/41 130/274/41
f 125/265/11 127/900/11 131/275/11
f 127/268/40 128/901/40 132/277/42
f 126/279/8 130/286/8 132/280/8
f 129/281/43 133/902/43 134/282/43
f 129/276/11 131/275/11 135/283/11
f 132/277/42 136/903/44 135/285/44
f 130/286/8 134/296/8 136/287/8
f 133/288/45 137/359/45 138/289/45
f 133/284/11 135/283/11 139/291/46
f 136/293/44 140/357/60 139/294/48
f 134/296/8 138/904/57 140/297/49
f 141/298/36 142/905/36 143/299/36
f 145/301/35 146/906/35 147/302/35
f 144/304/38 146/907/38 145/305/38
f 142/307/37 148/908/37 147/308/37
f 141/310/39 149/314/39 150/311/39
f 145/313/39 151/316/39 149/314/39
f 148/315/39 152/317/39 151/316/39
f 142/312/39 150/311/39 152/317/39
f 149/318/9 153/330/50 154/319/50
f 151/321/8 155/909/8 153/322/8
f 152/324/6 156/334/51 155/325/51
f 150/327/11 154/336/11 156/328/11
f 153/330/50 157/338/52 158/331/52
f 153/322/8 155/909/8 159/332/8
f 156/334/51 160/342/53 159/335/53
f 154/336/11 158/344/11 160/337/11
f 157/338/52 161/910/54 162/339/54
f 157/333/8 159/332/8 163/340/8
f 160/342/53 164/911/55 163/343/55
f 158/344/11 162/354/11 164/345/11
f 161/346/54 165/912/244 166/347/56
f 161/341/8 163/340/8 167/349/49
f 164/351/55 168/356/59 167/352/58
f 162/354/11 166/358/47 168/355/46
f 168/356/59 139/294/48 140/357/60
f 166/358/47 137/292/47 139/291/46
f 140/297/49 138/904/57 165/350/57
f 166/347/56 165/912/244 138/289/5
f 170/360/35 171/913/35 172/361/35
f 174/363/36 175/914/36 176/364/36
f 172/366/37 174/915/37 173/367/37
f 170/369/38 176/916/38 175/370/38
f 169/372/39 177/376/39 178/373/39
f 173/375/39 179/378/39 177/376/39
f 176/377/39 180/379/39 179/378/39
f 170/374/39 178/373/39 180/379/39
f 177/380/6 181/392/61 182/381/61
f 179/383/11 183/917/11 181/384/11
f 180/386/9 184/396/40 183/387/40
f 178/389/8 182/398/8 184/390/8
f 181/392/61 185/400/62 186/393/62
f 181/384/11 183/917/11 187/394/11
f 184/396/40 188/404/42 187/397/42
f 182/398/8 186/406/8 188/399/8
f 185/400/62 189/918/63 190/401/63
f 185/395/11 187/394/11 191/402/11
f 188/404/42 192/919/44 191/405/44
f 186/406/8 190/416/8 192/407/8
f 189/408/63 193/479/65 194/409/64
f 189/403/11 191/402/11 195/411/46
f 192/413/44 196/477/60 195/414/48
f 190/416/8 194/920/57 196/417/49
f 198/418/36 199/921/36 200/419/36
f 202/421/35 203/922/35 204/422/35
f 200/424/38 202/923/38 201/425/38
f 199/427/37 198/924/37 204/428/37
f 197/430/39 205/434/39 206/431/39
f 201/433/39 207/436/39 205/434/39
f 204/435/39 208/437/39 207/436/39
f 198/432/39 206/431/39 208/437/39
f 205/438/9 209/450/50 210/439/50
f 207/441/8 211/925/8 209/442/8
f 208/444/6 212/454/51 211/445/51
f 206/447/11 210/456/11 212/448/11
f 209/450/50 213/458/52 214/451/52
f 209/442/8 211/925/8 215/452/8
f 212/454/51 216/462/53 215/455/53
f 210/456/11 214/464/11 216/457/11
f 213/458/52 217/926/54 218/459/54
f 213/453/8 215/452/8 219/460/8
f 216/462/53 220/927/55 219/463/55
f 214/464/11 218/474/11 220/465/11
f 217/466/54 221/928/244 222/467/56
f 217/461/8 219/460/8 223/469/49
f 220/471/55 224/476/59 223/472/58
f 218/474/11 222/478/47 224/475/46
f 224/476/59 195/414/48 196/477/60
f 193/412/47 195/411/46 224/475/46
f 196/417/49 194/920/57 221/470/57
f 222/467/56 221/928/244 194/409/64
f 226/480/66 227/512/73 228/481/67
f 225/483/68 228/929/67 230/484/69
f 231/486/71 229/485/70 230/484/69
f 233/488/9 234/506/9 235/489/9
f 235/489/9 237/504/9 238/491/9
f 240/492/9 241/496/9 242/493/9
f 243/495/9 244/507/9 241/496/9
f 245/497/9 246/499/9 240/492/9
f 247/498/9 243/495/9 240/492/9
f 248/500/9 249/502/9 243/495/9
f 250/501/9 244/507/9 243/495/9
f 251/503/9 238/491/9 237/504/9
f 234/506/9 242/493/9 241/496/9
f 244/507/9 237/504/9 235/489/9
f 244/507/9 250/501/9 252/505/9
f 253/508/9 254/510/9 246/499/9
f 255/509/9 247/498/9 246/499/9
f 247/498/9 255/509/9 256/511/9
f 227/512/73 226/480/66 258/513/74
f 260/515/76 261/930/91 262/516/77
f 264/518/79 265/931/94 266/519/80
f 267/521/82 268/932/97 231/522/71
f 269/524/83 257/514/75 258/513/74
f 271/526/85 259/517/78 262/516/77
f 273/528/87 263/520/81 266/519/80
f 275/530/89 269/933/83 270/531/84
f 275/530/89 276/532/90 261/533/91
f 271/526/85 272/527/86 278/535/92
f 277/537/93 278/934/92 265/538/94
f 279/540/95 273/935/87 274/541/88
f 279/540/95 280/542/96 268/543/97
f 250/545/98 249/936/245 282/546/99
f 283/548/101 236/937/246 238/549/102
f 239/551/104 242/938/247 286/552/105
f 255/554/107 254/939/248 288/555/108
f 252/557/110 250/545/98 281/547/100
f 282/546/99 249/936/245 248/559/112
f 233/561/114 236/937/246 283/548/101
f 245/563/116 239/551/104 285/553/106
f 293/565/118 251/567/119 252/557/110
f 284/566/103 238/940/102 251/567/119
f 248/559/112 256/569/121 294/568/120
f 256/569/121 255/941/107 287/570/109
f 234/571/122 233/561/114 291/562/115
f 286/573/105 242/942/247 234/571/122
f 296/574/124 253/576/125 245/563/116
f 288/575/108 254/943/248 253/576/125
f 281/547/100 282/546/99 227/577/73
f 283/548/101 284/550/103 260/579/76
f 263/581/81 285/553/106 286/552/105
f 287/556/109 288/555/108 267/583/82
f 269/585/83 289/558/111 281/547/100
f 282/546/99 290/560/113 228/586/67
f 291/562/115 283/548/101 259/580/78
f 273/588/87 292/564/117 285/553/106
f 275/589/89 293/565/118 289/558/111
f 260/590/76 284/566/103 293/565/118
f 290/560/113 294/568/120 230/591/69
f 294/568/120 287/570/109 232/592/72
f 295/572/123 291/562/115 271/587/85
f 286/573/105 295/572/123 277/593/93
f 279/595/95 296/574/124 292/564/117
f 267/596/82 288/575/108 296/574/124
f 298/597/6 299/601/6 300/598/6
f 301/600/6 302/603/6 299/601/6
f 303/602/6 304/605/6 302/603/6
f 303/602/6 305/944/6 306/604/6
f 305/606/6 307/610/6 308/607/6
f 309/609/6 310/612/6 308/607/6
f 309/609/6 311/613/6 312/611/6
f 311/613/6 313/945/6 314/614/126
f 313/615/6 315/619/6 316/616/127
f 317/618/6 318/621/6 316/616/127
f 319/620/6 320/623/6 318/621/6
f 319/620/6 321/946/6 322/622/6
f 323/624/6 324/947/6 322/625/6
f 325/627/6 326/631/6 324/628/6
f 325/627/6 327/632/6 328/630/6
f 327/632/6 297/599/6 300/598/6
f 300/598/128 299/601/249 258/633/129
f 258/633/129 299/601/249 302/603/131
f 302/603/131 304/605/134 276/636/133
f 304/605/134 306/604/250 261/637/135
f 261/638/135 306/608/250 308/607/136
f 262/639/137 308/607/136 310/612/138
f 272/640/139 310/612/138 312/611/140
f 312/611/140 314/614/126 265/642/142
f 265/643/142 314/617/126 316/616/127
f 266/644/143 316/616/127 318/621/144
f 318/621/144 320/623/147 280/646/146
f 320/623/147 322/622/149 268/647/148
f 322/625/149 324/947/251 231/648/150
f 231/650/150 324/628/251 326/631/151
f 229/651/152 326/631/151 328/630/153
f 328/630/153 300/598/128 226/634/130
f 330/653/80 331/685/160 332/654/155
f 329/656/156 332/948/155 334/657/157
f 335/659/97 333/658/158 334/657/157
f 337/661/6 338/679/6 339/662/6
f 339/662/6 341/677/6 342/664/6
f 344/665/6 345/669/6 346/666/6
f 347/668/6 348/680/6 345/669/6
f 349/670/6 350/672/6 344/665/6
f 351/671/6 347/668/6 344/665/6
f 352/673/6 353/675/6 347/668/6
f 354/674/6 348/680/6 347/668/6
f 355/676/6 342/664/6 341/677/6
f 338/679/6 346/666/6 345/669/6
f 348/680/6 341/677/6 339/662/6
f 348/680/6 354/674/6 356/678/6
f 357/681/6 358/683/6 350/672/6
f 359/682/6 351/671/6 350/672/6
f 351/671/6 359/682/6 360/684/6
f 331/685/160 330/653/80 362/686/94
f 364/688/162 365/949/77 366/689/91
f 368/691/164 369/950/74 370/692/66
f 371/694/166 372/951/71 335/695/97
f 373/697/167 361/687/161 362/686/94
f 375/699/169 363/690/163 366/689/91
f 377/701/171 367/693/165 370/692/66
f 379/703/173 373/952/167 374/704/168
f 379/703/173 380/705/174 365/706/77
f 375/699/169 376/700/170 382/708/175
f 381/710/176 382/953/175 369/711/74
f 383/713/177 377/954/171 378/714/172
f 383/713/177 384/715/178 372/716/71
f 354/718/179 353/955/252 386/719/180
f 340/721/182 342/956/253 388/722/183
f 343/724/185 346/957/254 390/725/186
f 391/727/188 359/958/255 358/728/189
f 356/730/191 354/718/179 385/720/181
f 386/719/180 353/955/252 352/732/193
f 337/734/195 340/721/182 387/723/184
f 349/736/197 343/724/185 389/726/187
f 397/738/199 355/740/200 356/730/191
f 388/739/183 342/959/253 355/740/200
f 352/732/193 360/742/202 398/741/201
f 360/742/202 359/960/255 391/743/188
f 338/744/203 337/734/195 395/735/196
f 390/746/186 346/961/254 338/744/203
f 400/747/205 357/749/206 349/736/197
f 392/748/190 358/962/189 357/749/206
f 385/720/181 386/719/180 331/750/160
f 363/752/163 387/723/184 388/722/183
f 389/726/187 390/725/186 368/754/164
f 391/727/188 392/729/190 371/756/166
f 373/758/167 393/731/192 385/720/181
f 386/719/180 394/733/194 332/759/155
f 395/735/196 387/723/184 363/752/163
f 377/761/171 396/737/198 389/726/187
f 379/762/173 397/738/199 393/731/192
f 364/763/162 388/739/183 397/738/199
f 394/733/194 398/741/201 334/764/157
f 398/741/201 391/743/188 336/765/159
f 399/745/204 395/735/196 375/760/169
f 390/746/186 399/745/204 381/766/176
f 383/768/177 400/747/205 396/737/198
f 371/769/166 392/748/190 400/747/205
f 402/770/9 403/774/9 404/771/9
f 405/773/9 406/776/9 403/774/9
f 407/775/9 408/778/9 406/776/9
f 407/775/9 409/963/9 410/777/9
f 411/779/9 412/783/9 410/780/9
f 413/782/9 414/785/9 412/783/9
f 415/784/9 416/787/9 414/785/9
f 415/784/9 417/964/9 418/786/9
f 417/788/9 419/792/9 420/789/9
f 421/791/9 422/794/9 420/789/9
f 421/791/9 423/795/9 424/793/9
f 423/795/9 425/965/9 426/796/9
f 425/797/9 427/966/9 428/798/9
f 429/800/9 430/804/9 428/801/9
f 431/803/9 432/805/9 430/804/9
f 431/803/9 401/772/9 404/771/9
f 404/771/207 403/774/256 362/806/208
f 362/806/208 403/774/256 406/776/210
f 406/776/210 408/778/213 380/809/212
f 408/778/213 410/777/215 365/810/214
f 410/780/215 412/783/257 366/811/216
f 366/811/216 412/783/257 414/785/217
f 376/813/218 414/785/217 416/787/219
f 416/787/219 418/786/258 369/815/221
f 369/816/221 418/790/258 420/789/222
f 370/817/223 420/789/222 422/794/224
f 422/794/224 424/793/227 384/819/226
f 424/793/227 426/796/259 372/820/228
f 372/821/228 426/799/259 428/798/229
f 335/823/230 428/801/229 430/804/231
f 333/824/232 430/804/231 432/805/233
f 432/805/233 404/771/207 330/807/209
f 307/826/77 305/841/91 411/827/91
f 298/829/74 297/835/66 419/830/66
f 323/832/71 321/967/97 427/833/97
f 297/835/66 327/968/235 421/836/235
f 421/837/235 327/969/235 325/838/236
f 325/838/236 323/970/71 425/840/71
f 305/841/91 303/843/237 413/842/237
f 303/843/237 301/971/238 415/844/238
f 301/845/238 298/972/74 417/846/74
f 309/848/239 307/826/77 409/828/77
f 313/850/94 311/973/240 405/851/240
f 311/853/240 309/848/239 407/849/239
f 315/855/80 313/850/94 402/852/94
f 321/857/97 319/860/241 429/858/241
f 319/860/241 317/974/242 431/861/242
f 317/862/242 315/855/80 401/856/80
